<?xml version="1.0" standalone="no"?>
<!DOCTYPE svg PUBLIC "-//W3C//DTD SVG 20010904//EN"
 "http://www.w3.org/TR/2001/REC-SVG-20010904/DTD/svg10.dtd">
<svg version="1.0" xmlns="http://www.w3.org/2000/svg"
 width="512.000000pt" height="512.000000pt" viewBox="0 0 512.000000 512.000000"
 preserveAspectRatio="xMidYMid meet">
<metadata>
Created by potrace 1.14, written by Peter Selinger 2001-2017
</metadata>
<g transform="translate(0.000000,512.000000) scale(0.100000,-0.100000)"
fill="#000000" stroke="none">
<path d="M2345 5099 c-109 -11 -179 -20 -196 -25 -10 -3 -30 -6 -45 -9 -43 -5
-161 -32 -224 -50 -30 -9 -59 -17 -65 -19 -23 -5 -122 -39 -150 -51 -16 -7
-55 -23 -85 -35 -216 -87 -495 -259 -676 -416 -508 -442 -810 -1024 -881
-1694 -15 -141 -8 -470 12 -593 2 -12 6 -39 9 -60 21 -136 71 -326 126 -480
l32 -89 57 7 c67 8 240 8 296 0 396 -58 798 -265 1198 -617 37 -33 67 -57 67
-54 0 10 -168 244 -263 366 -284 364 -597 666 -892 859 -144 95 -219 135 -378
202 -77 32 -203 69 -236 69 -32 0 -18 16 21 24 308 63 640 -13 951 -216 207
-136 439 -349 617 -568 25 -30 47 -57 50 -60 16 -14 148 -190 225 -300 49 -69
86 -118 82 -109 -46 131 -296 643 -406 834 -332 573 -682 990 -1025 1219 -54
36 -95 66 -90 66 5 0 27 -5 49 -10 22 -5 54 -11 72 -15 98 -17 301 -110 428
-195 187 -127 406 -347 561 -566 26 -38 51 -71 54 -74 6 -5 110 -168 147 -230
60 -99 199 -359 248 -462 30 -65 57 -118 59 -118 3 0 -1 19 -9 43 -7 23 -30
98 -50 167 -48 167 -123 401 -135 422 -6 10 -10 23 -10 29 0 7 -23 73 -51 148
-221 583 -492 1079 -756 1386 l-77 89 50 -28 c149 -86 345 -256 460 -398 32
-40 62 -75 65 -78 13 -11 140 -200 194 -290 132 -217 307 -612 411 -927 40
-120 119 -380 129 -423 29 -126 80 -317 86 -324 5 -5 7 -1 5 10 -2 10 -7 60
-11 109 -4 50 -8 104 -10 120 -2 17 -7 64 -11 105 -3 41 -8 83 -10 94 -2 10
-6 44 -9 75 -4 31 -8 67 -10 81 -2 14 -7 49 -10 79 -4 30 -8 62 -10 72 -2 9
-7 39 -10 66 -4 26 -14 86 -22 133 -8 47 -16 94 -17 105 -32 208 -146 699
-213 914 -15 47 -28 91 -29 96 -12 49 -127 373 -153 430 -5 11 -18 40 -28 65
-9 25 -50 110 -89 190 -40 80 -71 146 -69 148 1 1 40 -43 86 -99 233 -281 401
-601 545 -1036 78 -235 113 -371 172 -658 36 -178 39 -187 47 -145 77 446 227
936 390 1275 77 158 227 407 293 483 9 11 35 41 57 68 53 63 98 111 94 99 -3
-5 -32 -64 -65 -130 -34 -66 -78 -160 -99 -210 -20 -49 -43 -103 -50 -120 -24
-55 -115 -315 -136 -388 -55 -187 -101 -354 -105 -377 -3 -14 -9 -39 -15 -57
-5 -17 -12 -44 -15 -60 -3 -15 -16 -75 -29 -133 -13 -58 -34 -157 -46 -220
-11 -63 -23 -124 -25 -135 -2 -11 -9 -49 -14 -85 -5 -36 -11 -74 -14 -85 -2
-11 -7 -42 -10 -70 -4 -27 -9 -61 -11 -75 -2 -14 -9 -63 -15 -110 -6 -47 -13
-96 -15 -110 -2 -14 -6 -54 -10 -90 -4 -36 -8 -76 -10 -90 -2 -14 -7 -59 -10
-100 -3 -41 -8 -97 -10 -125 -15 -159 -14 -159 24 -10 86 341 220 771 290 930
5 11 19 45 31 75 12 30 31 78 43 105 24 55 190 389 210 420 119 191 176 274
271 395 11 14 74 79 141 145 116 115 223 200 330 261 l50 28 -53 -59 c-256
-282 -540 -791 -762 -1365 -37 -98 -130 -358 -135 -380 -2 -8 -10 -35 -19 -60
-20 -59 -96 -319 -102 -347 -2 -12 -9 -34 -14 -48 -25 -65 -3 -26 85 150 103
210 144 284 230 425 55 91 185 285 218 326 296 367 522 557 790 664 118 47
306 92 292 70 -3 -5 -11 -10 -16 -10 -16 0 -147 -92 -229 -160 -73 -60 -249
-233 -320 -315 -20 -22 -71 -85 -115 -140 -229 -288 -433 -617 -631 -1020
-108 -222 -234 -500 -216 -480 14 16 102 146 102 150 0 3 7 13 15 22 8 10 48
63 89 118 268 359 539 620 827 798 163 100 357 172 519 193 71 9 232 10 290 2
102 -15 131 -21 137 -31 3 -5 2 -7 -4 -4 -15 10 -159 -30 -273 -76 -157 -63
-404 -212 -562 -340 -317 -254 -631 -602 -893 -987 -77 -113 -76 -118 5 -40 3
3 30 26 60 51 388 325 778 519 1140 565 62 8 252 7 290 -1 14 -3 44 -8 67 -11
41 -5 43 -4 59 33 51 120 132 400 149 518 3 23 7 51 10 63 20 105 28 508 12
647 -29 262 -78 452 -187 725 -63 160 -230 441 -353 593 -246 306 -547 546
-892 712 -151 72 -377 154 -495 179 -14 3 -54 12 -90 20 -65 14 -92 19 -185
31 -27 4 -61 9 -75 12 -43 8 -411 10 -485 2z"/>
<path d="M320 1342 c0 -15 147 -253 187 -302 6 -8 42 -53 79 -100 73 -90 250
-273 324 -332 25 -20 65 -53 90 -73 143 -119 432 -282 646 -364 102 -40 322
-106 389 -116 17 -3 50 -9 75 -14 25 -6 64 -12 88 -16 42 -5 43 -5 30 14 -43
61 -327 356 -473 491 -303 281 -646 516 -956 657 -175 79 -479 177 -479 155z"/>
<path d="M4689 1324 c-410 -104 -806 -321 -1214 -662 -159 -133 -420 -388
-540 -527 -33 -39 -66 -74 -72 -78 -7 -4 -18 -17 -23 -28 -10 -18 -8 -19 17
-15 15 3 55 8 88 12 33 3 63 8 66 10 3 2 19 5 35 8 16 3 43 7 59 10 48 9 243
65 320 92 198 71 377 162 563 286 114 76 103 68 227 171 95 79 254 238 320
322 22 28 43 52 46 55 23 21 162 232 216 327 l24 43 -24 -2 c-13 -1 -61 -12
-108 -24z"/>
</g>
</svg>
