<?xml version="1.0" encoding="utf-8"?>
<!-- Generator: Adobe Illustrator 25.4.1, SVG Export Plug-In . SVG Version: 6.00 Build 0)  -->
<svg version="1.1" id="Layer_1" xmlns="http://www.w3.org/2000/svg" xmlns:xlink="http://www.w3.org/1999/xlink" x="0px" y="0px"
	 viewBox="0 0 60.5 40" style="enable-background:new 0 0 60.5 40;" xml:space="preserve">
<style type="text/css">
	.st0{opacity:0.4;fill-rule:evenodd;clip-rule:evenodd;fill:#002F5C;}
</style>
<path class="st0" d="M32.8,13.8c0-8,6.8-14.3,14.9-13.8C54.5,0.5,60,6,60.5,12.8c0.4,6-3.1,11.3-8.2,13.6c-3.5,1.5-5.7,5-5.7,8.7
	v3.1c0,1.6-1.9,2.4-3,1.3C32,28.6,32.8,13.8,32.8,13.8"/>
<path class="st0" d="M0,13.8C0,5.9,6.8-0.5,14.9,0c6.8,0.5,12.4,6,12.9,12.8c0.4,6-3.1,11.3-8.2,13.6c-3.5,1.5-5.7,5-5.7,8.7v3.1
	c0,1.6-1.9,2.4-3,1.3C-0.8,28.6,0,13.8,0,13.8"/>
</svg>
